{
  "data": [
    {
      "created_at": 1670191449,
      "device_type": "caesar",
      "end_time": 1670192109,
      "fitness_discipline": "caesar",
      "has_pedaling_metrics": false,
      "has_leaderboard_metrics": true,
      "id": "3a5af153444941c0aa54c52aee4726fa",
      "is_total_work_personal_record": true,
      "is_outdoor": false,
      "metrics_type": "caesar",
      "name": "Rowing Workout",
      "peloton_id": "0a1c8fa834474805b8ac7ebca301a2b7",
      "platform": "caesar",
      "start_time": 1670191506,
      "status": "COMPLETE",
      "timezone": "Etc/GMT+6",
      "title": null,
      "total_work": 22629.63,
      "user_id": "ac6b497fc71d48fbb844366ccfa5921f",
      "workout_type": "class",
      "total_video_watch_time_seconds": 0,
      "total_video_buffering_seconds": 0,
      "v2_total_video_watch_time_seconds": 759,
      "v2_total_video_buffering_seconds": 1,
      "total_music_audio_play_seconds": null,
      "total_music_audio_buffer_seconds": null,
      "ride": {
        "has_closed_captions": false,
        "content_provider": "peloton",
        "content_format": "video",
        "description": "Maximize your potential on the Row by continuously improving your form. This drill-based class is meant to help prevent injury & improve efficiency by giving you confidence in every stroke.",
        "difficulty_rating_avg": 5.2762,
        "difficulty_rating_count": 181,
        "difficulty_level": null,
        "distance": null,
        "distance_display_value": null,
        "distance_unit": null,
        "duration": 600,
        "dynamic_video_recorded_speed_in_mph": 0.0,
        "extra_images": [],
        "fitness_discipline": "caesar",
        "fitness_discipline_display_name": "Rowing",
        "has_pedaling_metrics": false,
        "home_peloton_id": "1d35427b791946ae8b5b0440b30f6978",
        "id": "fbd71d16462c473d8c7aae32b440a775",
        "image_url": "https://s3.amazonaws.com/peloton-ride-images/918c33400864462400657762a2cdce1d4d4e593c/img_1662683206_017a9ea5293e4c73ac7b4ff2ee941666.png",
        "instructor_id": "15f01c9145de4d21b58c1a3e4e44a486",
        "is_archived": true,
        "is_closed_caption_shown": false,
        "is_dynamic_video_eligible": false,
        "is_explicit": false,
        "is_fixed_distance": false,
        "is_live_in_studio_only": true,
        "language": "english",
        "length": 786,
        "live_stream_id": "fbd71d16462c473d8c7aae32b300a775-live",
        "live_stream_url": null,
        "location": "psny-studio-3",
        "metrics": [ "heart_rate", "calories" ],
        "origin_locale": "en-US",
        "original_air_time": 1668092400,
        "overall_rating_avg": 0.9952,
        "overall_rating_count": 210,
        "pedaling_start_offset": 60,
        "pedaling_end_offset": 660,
        "pedaling_duration": 600,
        "rating": 0,
        "ride_type_id": "10e246846d2245eb8e26e50f06377e73",
        "ride_type_ids": [ "10e246846d2245eb8e26e50f06377e73" ],
        "sample_vod_stream_url": null,
        "sample_preview_stream_url": null,
        "scheduled_start_time": 1668092400,
        "series_id": "42d023efe202401184c15e335b7657ff",
        "sold_out": false,
        "studio_peloton_id": "d802dcc018dc4e51873acaff2bc4c1ec",
        "title": "10 min Form & Drills Row",
        "total_ratings": 0,
        "total_in_progress_workouts": 1,
        "total_workouts": 2630,
        "vod_stream_url": "https://amd-vod.akamaized.net/svod/classes/caesar/09-2022/fbd71d16462c473d8c7aae32b300a775/1/master.m3u8",
        "vod_stream_id": "fbd71d16462c473d8c7aae32b300a775-vod",
        "class_type_ids": [ "10e246846d2245eb8e26e50f06377e73" ],
        "difficulty_estimate": 5.2762,
        "overall_estimate": 0.9952,
        "availability": {
          "is_available": true,
          "reason": null
        },
        "explicit_rating": 0,
        "flags": []
      },
      "created": 1670191449,
      "device_time_created_at": 1670169849,
      "strava_id": null,
      "fitbit_id": null,
      "effort_zones": {
        "total_effort_points": 10.3,
        "heart_rate_zone_durations": {
          "heart_rate_z1_duration": 164,
          "heart_rate_z2_duration": 173,
          "heart_rate_z3_duration": 246,
          "heart_rate_z4_duration": 70,
          "heart_rate_z5_duration": 0
        }
      },
      "service_id": null
    }
  ],
  "limit": 5,
  "page": 0,
  "total": 6,
  "count": 5,
  "page_count": 2,
  "show_previous": false,
  "show_next": true,
  "sort_by": "-created_at,-pk",
  "next": {
    "workout_id": "acc6b03d05984f5558f4ffc9ee457cea",
    "created_at": 1670093994
  },
  "summary": {
    "2022-12": 5,
    "2018-10": 1
  },
  "aggregate_stats": [],
  "total_heart_rate_zone_durations": {
    "heart_rate_z1_duration": 716,
    "heart_rate_z2_duration": 618,
    "heart_rate_z3_duration": 983,
    "heart_rate_z4_duration": 1243,
    "heart_rate_z5_duration": 385
  }
}